m_nMapId2
64 properties

Int32 000
Int32 001
Int32 002
Int32 003
Int32 004
Int32 005
Int32 006
Int32 007
Int32 008
Int32 009
Int32 010
Int32 011
Int32 012
Int32 013
Int32 014
Int32 015
Int32 016
Int32 017
Int32 018
Int32 019
Int32 020
Int32 021
Int32 022
Int32 023
Int32 024
Int32 025
Int32 026
Int32 027
Int32 028
Int32 029
Int32 030
Int32 031
Int32 032
Int32 033
Int32 034
Int32 035
Int32 036
Int32 037
Int32 038
Int32 039
Int32 040
Int32 041
Int32 042
Int32 043
Int32 044
Int32 045
Int32 046
Int32 047
Int32 048
Int32 049
Int32 050
Int32 051
Int32 052
Int32 053
Int32 054
Int32 055
Int32 056
Int32 057
Int32 058
Int32 059
Int32 060
Int32 061
Int32 062
Int32 063
